[2021-04-24 11:38:56,375] {taskinstance.py:877} INFO - Dependencies all met for <TaskInstance: project_dag.Stage_events 2019-02-01T00:00:00+00:00 [queued]>
[2021-04-24 11:38:56,774] {taskinstance.py:877} INFO - Dependencies all met for <TaskInstance: project_dag.Stage_events 2019-02-01T00:00:00+00:00 [queued]>
[2021-04-24 11:38:56,774] {taskinstance.py:1068} INFO - 
--------------------------------------------------------------------------------
[2021-04-24 11:38:56,775] {taskinstance.py:1069} INFO - Starting attempt 1 of 2
[2021-04-24 11:38:56,775] {taskinstance.py:1070} INFO - 
--------------------------------------------------------------------------------
[2021-04-24 11:38:57,102] {taskinstance.py:1089} INFO - Executing <Task(StageToRedshiftOperator): Stage_events> on 2019-02-01T00:00:00+00:00
[2021-04-24 11:38:57,205] {standard_task_runner.py:76} INFO - Running: ['airflow', 'tasks', 'run', 'project_dag', 'Stage_events', '2019-02-01T00:00:00+00:00', '--job-id', '22', '--pool', 'default_pool', '--raw', '--subdir', 'DAGS_FOLDER/udac_example_dag.py', '--cfg-path', '/tmp/tmpsy281ebz', '--error-file', '/tmp/tmp5eokfov8']
[2021-04-24 11:38:57,145] {standard_task_runner.py:52} INFO - Started process 88 to run task
[2021-04-24 11:38:57,216] {standard_task_runner.py:77} INFO - Job 22: Subtask Stage_events
[2021-04-24 11:39:00,803] {logging_mixin.py:104} INFO - Running <TaskInstance: project_dag.Stage_events 2019-02-01T00:00:00+00:00 [running]> on host 88dcd2a12842
[2021-04-24 11:39:02,876] {taskinstance.py:1283} INFO - Exporting the following env vars:
AIRFLOW_CTX_DAG_EMAIL=ernest@gmail.com.com
AIRFLOW_CTX_DAG_OWNER=udacity
AIRFLOW_CTX_DAG_ID=project_dag
AIRFLOW_CTX_TASK_ID=Stage_events
AIRFLOW_CTX_EXECUTION_DATE=2019-02-01T00:00:00+00:00
AIRFLOW_CTX_DAG_RUN_ID=scheduled__2019-02-01T00:00:00+00:00
[2021-04-24 11:39:02,880] {stage_redshift.py:38} INFO - Start implementation of StageToRedshiftOperator
[2021-04-24 11:39:02,965] {taskinstance.py:1482} ERROR - Task failed with exception
Traceback (most recent call last):
  File "/home/airflow/.local/lib/python3.6/site-packages/airflow/models/taskinstance.py", line 1138, in _run_raw_task
    self._prepare_and_execute_task_with_callbacks(context, task)
  File "/home/airflow/.local/lib/python3.6/site-packages/airflow/models/taskinstance.py", line 1311, in _prepare_and_execute_task_with_callbacks
    result = self._execute_task(context, task_copy)
  File "/home/airflow/.local/lib/python3.6/site-packages/airflow/models/taskinstance.py", line 1341, in _execute_task
    result = task_copy.execute(context=context)
  File "/opt/airflow/plugins/operators/stage_redshift.py", line 39, in execute
    aws_hook = AwsHook(self.aws_credentials_id)
  File "/home/airflow/.local/lib/python3.6/site-packages/airflow/contrib/hooks/aws_hook.py", line 41, in __init__
    super().__init__(*args, **kwargs)
  File "/home/airflow/.local/lib/python3.6/site-packages/airflow/providers/amazon/aws/hooks/base_aws.py", line 360, in __init__
    raise AirflowException('Either client_type or resource_type must be provided.')
airflow.exceptions.AirflowException: Either client_type or resource_type must be provided.
[2021-04-24 11:39:02,972] {taskinstance.py:1532} INFO - Marking task as UP_FOR_RETRY. dag_id=project_dag, task_id=Stage_events, execution_date=20190201T000000, start_date=20210424T113856, end_date=20210424T113902
[2021-04-24 11:39:05,795] {local_task_job.py:146} INFO - Task exited with return code 1
[2021-04-26 09:12:35,871] {taskinstance.py:877} INFO - Dependencies all met for <TaskInstance: project_dag.Stage_events 2019-02-01T00:00:00+00:00 [queued]>
[2021-04-26 09:12:35,977] {taskinstance.py:877} INFO - Dependencies all met for <TaskInstance: project_dag.Stage_events 2019-02-01T00:00:00+00:00 [queued]>
[2021-04-26 09:12:35,977] {taskinstance.py:1068} INFO - 
--------------------------------------------------------------------------------
[2021-04-26 09:12:35,977] {taskinstance.py:1069} INFO - Starting attempt 1 of 2
[2021-04-26 09:12:35,977] {taskinstance.py:1070} INFO - 
--------------------------------------------------------------------------------
[2021-04-26 09:12:36,081] {taskinstance.py:1089} INFO - Executing <Task(StageToRedshiftOperator): Stage_events> on 2019-02-01T00:00:00+00:00
[2021-04-26 09:12:36,090] {standard_task_runner.py:52} INFO - Started process 127 to run task
[2021-04-26 09:12:36,105] {standard_task_runner.py:76} INFO - Running: ['airflow', 'tasks', 'run', 'project_dag', 'Stage_events', '2019-02-01T00:00:00+00:00', '--job-id', '43', '--pool', 'default_pool', '--raw', '--subdir', 'DAGS_FOLDER/udac_example_dag.py', '--cfg-path', '/tmp/tmpn4k_5xha', '--error-file', '/tmp/tmpu3oipdlm']
[2021-04-26 09:12:36,108] {standard_task_runner.py:77} INFO - Job 43: Subtask Stage_events
[2021-04-26 09:12:36,291] {logging_mixin.py:104} INFO - Running <TaskInstance: project_dag.Stage_events 2019-02-01T00:00:00+00:00 [running]> on host b5c40a6f08c7
[2021-04-26 09:12:36,434] {taskinstance.py:1283} INFO - Exporting the following env vars:
AIRFLOW_CTX_DAG_EMAIL=ernestoffor@gmail.com.com
AIRFLOW_CTX_DAG_OWNER=udacity
AIRFLOW_CTX_DAG_ID=project_dag
AIRFLOW_CTX_TASK_ID=Stage_events
AIRFLOW_CTX_EXECUTION_DATE=2019-02-01T00:00:00+00:00
AIRFLOW_CTX_DAG_RUN_ID=scheduled__2019-02-01T00:00:00+00:00
[2021-04-26 09:12:36,436] {stage_redshift.py:63} INFO - Start implementation of StageToRedshiftOperator
[2021-04-26 09:12:36,438] {stage_redshift.py:68} INFO - Preparing destination Redshift table
[2021-04-26 09:12:36,484] {base.py:78} INFO - Using connection to: id: redshift. Host: redshift.cxvwoeu3kuea.us-west-2.redshift.amazonaws.com, Port: 5439, Schema: dev, Login: awsuser, Password: XXXXXXXX, extra: None
[2021-04-26 09:12:38,057] {dbapi.py:180} INFO - Running statement: DELETE FROM staging_events, parameters: None
[2021-04-26 09:12:38,486] {dbapi.py:186} INFO - Rows affected: 0
[2021-04-26 09:12:38,787] {stage_redshift.py:71} INFO - Getting data from S3 to Redshift
[2021-04-26 09:12:38,845] {base.py:78} INFO - Using connection to: id: redshift. Host: redshift.cxvwoeu3kuea.us-west-2.redshift.amazonaws.com, Port: 5439, Schema: dev, Login: awsuser, Password: XXXXXXXX, extra: None
[2021-04-26 09:12:40,321] {dbapi.py:180} INFO - Running statement: 
             COPY staging_events 
             FROM 's3://udacity-dend/log_data/2018/11/*'
             FORMAT AS JSON 'log_json_path.json'
             CREDENTIALS
             'aws_access_key_id=None;aws_secret_access_key=None'
                , parameters: None
[2021-04-26 09:12:40,854] {taskinstance.py:1482} ERROR - Task failed with exception
Traceback (most recent call last):
  File "/home/airflow/.local/lib/python3.6/site-packages/airflow/models/taskinstance.py", line 1138, in _run_raw_task
    self._prepare_and_execute_task_with_callbacks(context, task)
  File "/home/airflow/.local/lib/python3.6/site-packages/airflow/models/taskinstance.py", line 1311, in _prepare_and_execute_task_with_callbacks
    result = self._execute_task(context, task_copy)
  File "/home/airflow/.local/lib/python3.6/site-packages/airflow/models/taskinstance.py", line 1341, in _execute_task
    result = task_copy.execute(context=context)
  File "/opt/airflow/plugins/operators/stage_redshift.py", line 81, in execute
    redshift.run(execution_sql)
  File "/home/airflow/.local/lib/python3.6/site-packages/airflow/hooks/dbapi.py", line 184, in run
    cur.execute(sql_statement)
psycopg2.errors.InternalError_: S3ServiceException:The AWS Access Key Id you provided does not exist in our records.,Status 403,Error InvalidAccessKeyId,Rid Y4H7RPBM0BSS5YVC,ExtRid RgWweWNzgMSqF4e8/f5z9GcTSitgNsD0wK3ZiW/q+oRb8JG63A2+MpIsOuBX4tzHj8a7xWvw9IQ=,CanRetry 1
DETAIL:  
  -----------------------------------------------
  error:  S3ServiceException:The AWS Access Key Id you provided does not exist in our records.,Status 403,Error InvalidAccessKeyId,Rid Y4H7RPBM0BSS5YVC,ExtRid RgWweWNzgMSqF4e8/f5z9GcTSitgNsD0wK3ZiW/q+oRb8JG63A2+MpIsOuBX4tzHj8a7xWvw9IQ=,CanRetry 1
  code:      8001
  context:   Listing bucket=udacity-dend prefix=log_data/2018/11/*
  query:     299
  location:  s3_utility.cpp:654
  process:   padbmaster [pid=14136]
  -----------------------------------------------


[2021-04-26 09:12:40,868] {taskinstance.py:1532} INFO - Marking task as UP_FOR_RETRY. dag_id=project_dag, task_id=Stage_events, execution_date=20190201T000000, start_date=20210426T091235, end_date=20210426T091240
[2021-04-26 09:12:40,987] {local_task_job.py:146} INFO - Task exited with return code 1
[2021-04-27 20:16:31,166] {taskinstance.py:877} INFO - Dependencies all met for <TaskInstance: project_dag.Stage_events 2019-02-01T00:00:00+00:00 [queued]>
[2021-04-27 20:16:31,936] {taskinstance.py:877} INFO - Dependencies all met for <TaskInstance: project_dag.Stage_events 2019-02-01T00:00:00+00:00 [queued]>
[2021-04-27 20:16:31,960] {taskinstance.py:1068} INFO - 
--------------------------------------------------------------------------------
[2021-04-27 20:16:31,968] {taskinstance.py:1069} INFO - Starting attempt 1 of 2
[2021-04-27 20:16:31,980] {taskinstance.py:1070} INFO - 
--------------------------------------------------------------------------------
[2021-04-27 20:16:32,393] {taskinstance.py:1089} INFO - Executing <Task(StageToRedshiftOperator): Stage_events> on 2019-02-01T00:00:00+00:00
[2021-04-27 20:16:32,855] {standard_task_runner.py:76} INFO - Running: ['airflow', 'tasks', 'run', 'project_dag', 'Stage_events', '2019-02-01T00:00:00+00:00', '--job-id', '37', '--pool', 'default_pool', '--raw', '--subdir', 'DAGS_FOLDER/udac_example_dag.py', '--cfg-path', '/tmp/tmpanidbslv', '--error-file', '/tmp/tmp_21ttbty']
[2021-04-27 20:16:32,905] {standard_task_runner.py:77} INFO - Job 37: Subtask Stage_events
[2021-04-27 20:16:32,611] {standard_task_runner.py:52} INFO - Started process 124 to run task
[2021-04-27 20:16:35,377] {logging_mixin.py:104} INFO - Running <TaskInstance: project_dag.Stage_events 2019-02-01T00:00:00+00:00 [running]> on host 88b3af0c26c0
[2021-04-27 20:16:37,957] {taskinstance.py:1283} INFO - Exporting the following env vars:
AIRFLOW_CTX_DAG_EMAIL=ernestoffor@gmail.com.com
AIRFLOW_CTX_DAG_OWNER=udacity
AIRFLOW_CTX_DAG_ID=project_dag
AIRFLOW_CTX_TASK_ID=Stage_events
AIRFLOW_CTX_EXECUTION_DATE=2019-02-01T00:00:00+00:00
AIRFLOW_CTX_DAG_RUN_ID=scheduled__2019-02-01T00:00:00+00:00
[2021-04-27 20:16:37,958] {stage_redshift.py:65} INFO - Start implementation of StageToRedshiftOperator
[2021-04-27 20:16:37,958] {taskinstance.py:1482} ERROR - Task failed with exception
Traceback (most recent call last):
  File "/home/airflow/.local/lib/python3.6/site-packages/airflow/models/taskinstance.py", line 1138, in _run_raw_task
    self._prepare_and_execute_task_with_callbacks(context, task)
  File "/home/airflow/.local/lib/python3.6/site-packages/airflow/models/taskinstance.py", line 1311, in _prepare_and_execute_task_with_callbacks
    result = self._execute_task(context, task_copy)
  File "/home/airflow/.local/lib/python3.6/site-packages/airflow/models/taskinstance.py", line 1341, in _execute_task
    result = task_copy.execute(context=context)
  File "/opt/airflow/plugins/operators/stage_redshift.py", line 66, in execute
    s3 = S3Hook(aws_conn_id=self.aws_credentials_id)
AttributeError: 'StageToRedshiftOperator' object has no attribute 'aws_credentials_id'
[2021-04-27 20:16:38,256] {taskinstance.py:1532} INFO - Marking task as UP_FOR_RETRY. dag_id=project_dag, task_id=Stage_events, execution_date=20190201T000000, start_date=20210427T201631, end_date=20210427T201638
[2021-04-27 20:16:39,213] {local_task_job.py:188} WARNING - State of this instance has been externally set to up_for_retry. Terminating instance.
[2021-04-27 20:16:39,250] {process_utils.py:100} INFO - Sending Signals.SIGTERM to GPID 124
[2021-04-27 20:16:39,399] {process_utils.py:66} INFO - Process psutil.Process(pid=124, status='terminated', exitcode=1, started='20:16:32') (124) terminated with exit code 1
[2021-04-27 20:37:44,527] {taskinstance.py:877} INFO - Dependencies all met for <TaskInstance: project_dag.Stage_events 2019-02-01T00:00:00+00:00 [queued]>
[2021-04-27 20:37:44,720] {taskinstance.py:877} INFO - Dependencies all met for <TaskInstance: project_dag.Stage_events 2019-02-01T00:00:00+00:00 [queued]>
[2021-04-27 20:37:44,732] {taskinstance.py:1068} INFO - 
--------------------------------------------------------------------------------
[2021-04-27 20:37:44,732] {taskinstance.py:1069} INFO - Starting attempt 1 of 2
[2021-04-27 20:37:44,732] {taskinstance.py:1070} INFO - 
--------------------------------------------------------------------------------
[2021-04-27 20:37:44,888] {taskinstance.py:1089} INFO - Executing <Task(StageToRedshiftOperator): Stage_events> on 2019-02-01T00:00:00+00:00
[2021-04-27 20:37:44,974] {standard_task_runner.py:76} INFO - Running: ['airflow', 'tasks', 'run', 'project_dag', 'Stage_events', '2019-02-01T00:00:00+00:00', '--job-id', '50', '--pool', 'default_pool', '--raw', '--subdir', 'DAGS_FOLDER/udac_example_dag.py', '--cfg-path', '/tmp/tmpawj85uma', '--error-file', '/tmp/tmpt4awsbin']
[2021-04-27 20:37:44,929] {standard_task_runner.py:52} INFO - Started process 137 to run task
[2021-04-27 20:37:44,999] {standard_task_runner.py:77} INFO - Job 50: Subtask Stage_events
[2021-04-27 20:37:45,423] {logging_mixin.py:104} INFO - Running <TaskInstance: project_dag.Stage_events 2019-02-01T00:00:00+00:00 [running]> on host 478c7ec349b0
[2021-04-27 20:37:46,139] {taskinstance.py:1283} INFO - Exporting the following env vars:
AIRFLOW_CTX_DAG_EMAIL=ernestoffor@gmail.com.com
AIRFLOW_CTX_DAG_OWNER=udacity
AIRFLOW_CTX_DAG_ID=project_dag
AIRFLOW_CTX_TASK_ID=Stage_events
AIRFLOW_CTX_EXECUTION_DATE=2019-02-01T00:00:00+00:00
AIRFLOW_CTX_DAG_RUN_ID=scheduled__2019-02-01T00:00:00+00:00
[2021-04-27 20:37:46,145] {stage_redshift.py:67} INFO - Start implementation of StageToRedshiftOperator
[2021-04-27 20:37:46,146] {stage_redshift.py:74} INFO - Preparing destination Redshift table
[2021-04-27 20:37:46,330] {base.py:78} INFO - Using connection to: id: redshift. Host: redshift.cxvwoeu3kuea.us-west-2.redshift.amazonaws.com, Port: 5439, Schema: dev, Login: awsuser, Password: XXXXXXXX, extra: None
[2021-04-27 20:37:47,832] {dbapi.py:180} INFO - Running statement: DELETE FROM staging_events, parameters: None
[2021-04-27 20:37:48,260] {dbapi.py:186} INFO - Rows affected: 0
[2021-04-27 20:37:48,545] {stage_redshift.py:77} INFO - Getting data from S3 to Redshift
[2021-04-27 20:37:50,758] {taskinstance.py:1482} ERROR - Task failed with exception
Traceback (most recent call last):
  File "/home/airflow/.local/lib/python3.6/site-packages/airflow/models/taskinstance.py", line 1138, in _run_raw_task
    self._prepare_and_execute_task_with_callbacks(context, task)
  File "/home/airflow/.local/lib/python3.6/site-packages/airflow/models/taskinstance.py", line 1311, in _prepare_and_execute_task_with_callbacks
    result = self._execute_task(context, task_copy)
  File "/home/airflow/.local/lib/python3.6/site-packages/airflow/models/taskinstance.py", line 1341, in _execute_task
    result = task_copy.execute(context=context)
  File "/opt/airflow/plugins/operators/stage_redshift.py", line 83, in execute
    s3.get_credentials().access_key,
  File "/home/airflow/.local/lib/python3.6/site-packages/airflow/providers/amazon/aws/hooks/base_aws.py", line 478, in get_credentials
    return session.get_credentials().get_frozen_credentials()
AttributeError: 'NoneType' object has no attribute 'get_frozen_credentials'
[2021-04-27 20:37:50,764] {taskinstance.py:1532} INFO - Marking task as UP_FOR_RETRY. dag_id=project_dag, task_id=Stage_events, execution_date=20190201T000000, start_date=20210427T203744, end_date=20210427T203750
[2021-04-27 20:37:50,876] {local_task_job.py:146} INFO - Task exited with return code 1
